…
Here we see that most of the “bell” falls between about ~1500 steps and ~13,500 steps. There are a few noticeable outliers. The most frequent number of TotalSteps is actually 0.  

```
daily_activity %>% dplyr::count(TotalSteps)
```
```
## # A tibble: 842 × 2
##    TotalSteps     n
##         <dbl> <int>
##  1          0    77
##  2          4     1
##  3          8     1
##  4          9     1
##  5         16     1
##  6         17     1
##  7         29     1
##  8         31     1
##  9         42     1
## 10         44     1
## # ℹ 832 more rows
```
…
